exp1/coding/crypto.sim/sim_1/behav/xsim/simulate.log
Vivado Simulator 2018.3
Time resolution is 1 ps
Time:   10 ns I:   0 DATA: 0000  KEY: 0000 Output: 0000
Time:   20 ns I:   1 DATA: 0000  KEY: 0001 Output: 0001
Time:   30 ns I:   2 DATA: 0000  KEY: 0010 Output: 0010
Time:   40 ns I:   3 DATA: 0000  KEY: 0011 Output: 0011
Time:   50 ns I:   4 DATA: 0000  KEY: 0100 Output: 0100
Time:   60 ns I:   5 DATA: 0000  KEY: 0101 Output: 0101
Time:   70 ns I:   6 DATA: 0000  KEY: 0110 Output: 0110
Time:   80 ns I:   7 DATA: 0000  KEY: 0111 Output: 0111
Time:   90 ns I:   8 DATA: 0000  KEY: 1000 Output: 1000
Time:  100 ns I:   9 DATA: 0000  KEY: 1001 Output: 1001
Time:  110 ns I:  10 DATA: 0000  KEY: 1010 Output: 1010
Time:  120 ns I:  11 DATA: 0000  KEY: 1011 Output: 1011
Time:  130 ns I:  12 DATA: 0000  KEY: 1100 Output: 1100
Time:  140 ns I:  13 DATA: 0000  KEY: 1101 Output: 1101
Time:  150 ns I:  14 DATA: 0000  KEY: 1110 Output: 1110
Time:  160 ns I:  15 DATA: 0000  KEY: 1111 Output: 1111
Time:  170 ns I:  16 DATA: 0001  KEY: 0000 Output: 0001
Time:  180 ns I:  17 DATA: 0001  KEY: 0001 Output: 0000
Time:  190 ns I:  18 DATA: 0001  KEY: 0010 Output: 0011
Time:  200 ns I:  19 DATA: 0001  KEY: 0011 Output: 0010
Time:  210 ns I:  20 DATA: 0001  KEY: 0100 Output: 0101
Time:  220 ns I:  21 DATA: 0001  KEY: 0101 Output: 0100
Time:  230 ns I:  22 DATA: 0001  KEY: 0110 Output: 0111
Time:  240 ns I:  23 DATA: 0001  KEY: 0111 Output: 0110
Time:  250 ns I:  24 DATA: 0001  KEY: 1000 Output: 1001
Time:  260 ns I:  25 DATA: 0001  KEY: 1001 Output: 1000
Time:  270 ns I:  26 DATA: 0001  KEY: 1010 Output: 1011
Time:  280 ns I:  27 DATA: 0001  KEY: 1011 Output: 1010
Time:  290 ns I:  28 DATA: 0001  KEY: 1100 Output: 1101
Time:  300 ns I:  29 DATA: 0001  KEY: 1101 Output: 1100
Time:  310 ns I:  30 DATA: 0001  KEY: 1110 Output: 1111
Time:  320 ns I:  31 DATA: 0001  KEY: 1111 Output: 1110
Time:  330 ns I:  32 DATA: 0010  KEY: 0000 Output: 0010
Time:  340 ns I:  33 DATA: 0010  KEY: 0001 Output: 0011
Time:  350 ns I:  34 DATA: 0010  KEY: 0010 Output: 0000
Time:  360 ns I:  35 DATA: 0010  KEY: 0011 Output: 0001
Time:  370 ns I:  36 DATA: 0010  KEY: 0100 Output: 0110
Time:  380 ns I:  37 DATA: 0010  KEY: 0101 Output: 0111
Time:  390 ns I:  38 DATA: 0010  KEY: 0110 Output: 0100
Time:  400 ns I:  39 DATA: 0010  KEY: 0111 Output: 0101
Time:  410 ns I:  40 DATA: 0010  KEY: 1000 Output: 1010
Time:  420 ns I:  41 DATA: 0010  KEY: 1001 Output: 1011
Time:  430 ns I:  42 DATA: 0010  KEY: 1010 Output: 1000
Time:  440 ns I:  43 DATA: 0010  KEY: 1011 Output: 1001
Time:  450 ns I:  44 DATA: 0010  KEY: 1100 Output: 1110
Time:  460 ns I:  45 DATA: 0010  KEY: 1101 Output: 1111
Time:  470 ns I:  46 DATA: 0010  KEY: 1110 Output: 1100
Time:  480 ns I:  47 DATA: 0010  KEY: 1111 Output: 1101
Time:  490 ns I:  48 DATA: 0011  KEY: 0000 Output: 0011
Time:  500 ns I:  49 DATA: 0011  KEY: 0001 Output: 0010
Time:  510 ns I:  50 DATA: 0011  KEY: 0010 Output: 0001
Time:  520 ns I:  51 DATA: 0011  KEY: 0011 Output: 0000
Time:  530 ns I:  52 DATA: 0011  KEY: 0100 Output: 0111
Time:  540 ns I:  53 DATA: 0011  KEY: 0101 Output: 0110
Time:  550 ns I:  54 DATA: 0011  KEY: 0110 Output: 0101
Time:  560 ns I:  55 DATA: 0011  KEY: 0111 Output: 0100
Time:  570 ns I:  56 DATA: 0011  KEY: 1000 Output: 1011
Time:  580 ns I:  57 DATA: 0011  KEY: 1001 Output: 1010
Time:  590 ns I:  58 DATA: 0011  KEY: 1010 Output: 1001
Time:  600 ns I:  59 DATA: 0011  KEY: 1011 Output: 1000
Time:  610 ns I:  60 DATA: 0011  KEY: 1100 Output: 1111
Time:  620 ns I:  61 DATA: 0011  KEY: 1101 Output: 1110
Time:  630 ns I:  62 DATA: 0011  KEY: 1110 Output: 1101
Time:  640 ns I:  63 DATA: 0011  KEY: 1111 Output: 1100
Time:  650 ns I:  64 DATA: 0100  KEY: 0000 Output: 0100
Time:  660 ns I:  65 DATA: 0100  KEY: 0001 Output: 0101
Time:  670 ns I:  66 DATA: 0100  KEY: 0010 Output: 0110
Time:  680 ns I:  67 DATA: 0100  KEY: 0011 Output: 0111
Time:  690 ns I:  68 DATA: 0100  KEY: 0100 Output: 0000
Time:  700 ns I:  69 DATA: 0100  KEY: 0101 Output: 0001
Time:  710 ns I:  70 DATA: 0100  KEY: 0110 Output: 0010
Time:  720 ns I:  71 DATA: 0100  KEY: 0111 Output: 0011
Time:  730 ns I:  72 DATA: 0100  KEY: 1000 Output: 1100
Time:  740 ns I:  73 DATA: 0100  KEY: 1001 Output: 1101
Time:  750 ns I:  74 DATA: 0100  KEY: 1010 Output: 1110
Time:  760 ns I:  75 DATA: 0100  KEY: 1011 Output: 1111
Time:  770 ns I:  76 DATA: 0100  KEY: 1100 Output: 1000
Time:  780 ns I:  77 DATA: 0100  KEY: 1101 Output: 1001
Time:  790 ns I:  78 DATA: 0100  KEY: 1110 Output: 1010
Time:  800 ns I:  79 DATA: 0100  KEY: 1111 Output: 1011
Time:  810 ns I:  80 DATA: 0101  KEY: 0000 Output: 0101
Time:  820 ns I:  81 DATA: 0101  KEY: 0001 Output: 0100
Time:  830 ns I:  82 DATA: 0101  KEY: 0010 Output: 0111
Time:  840 ns I:  83 DATA: 0101  KEY: 0011 Output: 0110
Time:  850 ns I:  84 DATA: 0101  KEY: 0100 Output: 0001
Time:  860 ns I:  85 DATA: 0101  KEY: 0101 Output: 0000
Time:  870 ns I:  86 DATA: 0101  KEY: 0110 Output: 0011
Time:  880 ns I:  87 DATA: 0101  KEY: 0111 Output: 0010
Time:  890 ns I:  88 DATA: 0101  KEY: 1000 Output: 1101
Time:  900 ns I:  89 DATA: 0101  KEY: 1001 Output: 1100
Time:  910 ns I:  90 DATA: 0101  KEY: 1010 Output: 1111
Time:  920 ns I:  91 DATA: 0101  KEY: 1011 Output: 1110
Time:  930 ns I:  92 DATA: 0101  KEY: 1100 Output: 1001
Time:  940 ns I:  93 DATA: 0101  KEY: 1101 Output: 1000
Time:  950 ns I:  94 DATA: 0101  KEY: 1110 Output: 1011
Time:  960 ns I:  95 DATA: 0101  KEY: 1111 Output: 1010
Time:  970 ns I:  96 DATA: 0110  KEY: 0000 Output: 0110
Time:  980 ns I:  97 DATA: 0110  KEY: 0001 Output: 0111
Time:  990 ns I:  98 DATA: 0110  KEY: 0010 Output: 0100
Time: 1000 ns I:  99 DATA: 0110  KEY: 0011 Output: 0101
Time: 1010 ns I: 100 DATA: 0110  KEY: 0100 Output: 0010
Time: 1020 ns I: 101 DATA: 0110  KEY: 0101 Output: 0011
Time: 1030 ns I: 102 DATA: 0110  KEY: 0110 Output: 0000
Time: 1040 ns I: 103 DATA: 0110  KEY: 0111 Output: 0001
Time: 1050 ns I: 104 DATA: 0110  KEY: 1000 Output: 1110
Time: 1060 ns I: 105 DATA: 0110  KEY: 1001 Output: 1111
Time: 1070 ns I: 106 DATA: 0110  KEY: 1010 Output: 1100
Time: 1080 ns I: 107 DATA: 0110  KEY: 1011 Output: 1101
Time: 1090 ns I: 108 DATA: 0110  KEY: 1100 Output: 1010
Time: 1100 ns I: 109 DATA: 0110  KEY: 1101 Output: 1011
Time: 1110 ns I: 110 DATA: 0110  KEY: 1110 Output: 1000
Time: 1120 ns I: 111 DATA: 0110  KEY: 1111 Output: 1001
Time: 1130 ns I: 112 DATA: 0111  KEY: 0000 Output: 0111
Time: 1140 ns I: 113 DATA: 0111  KEY: 0001 Output: 0110
Time: 1150 ns I: 114 DATA: 0111  KEY: 0010 Output: 0101
Time: 1160 ns I: 115 DATA: 0111  KEY: 0011 Output: 0100
Time: 1170 ns I: 116 DATA: 0111  KEY: 0100 Output: 0011
Time: 1180 ns I: 117 DATA: 0111  KEY: 0101 Output: 0010
Time: 1190 ns I: 118 DATA: 0111  KEY: 0110 Output: 0001
Time: 1200 ns I: 119 DATA: 0111  KEY: 0111 Output: 0000
Time: 1210 ns I: 120 DATA: 0111  KEY: 1000 Output: 1111
Time: 1220 ns I: 121 DATA: 0111  KEY: 1001 Output: 1110
Time: 1230 ns I: 122 DATA: 0111  KEY: 1010 Output: 1101
Time: 1240 ns I: 123 DATA: 0111  KEY: 1011 Output: 1100
Time: 1250 ns I: 124 DATA: 0111  KEY: 1100 Output: 1011
Time: 1260 ns I: 125 DATA: 0111  KEY: 1101 Output: 1010
Time: 1270 ns I: 126 DATA: 0111  KEY: 1110 Output: 1001
Time: 1280 ns I: 127 DATA: 0111  KEY: 1111 Output: 1000
Time: 1290 ns I: 128 DATA: 1000  KEY: 0000 Output: 1000
Time: 1300 ns I: 129 DATA: 1000  KEY: 0001 Output: 1001
Time: 1310 ns I: 130 DATA: 1000  KEY: 0010 Output: 1010
Time: 1320 ns I: 131 DATA: 1000  KEY: 0011 Output: 1011
Time: 1330 ns I: 132 DATA: 1000  KEY: 0100 Output: 1100
Time: 1340 ns I: 133 DATA: 1000  KEY: 0101 Output: 1101
Time: 1350 ns I: 134 DATA: 1000  KEY: 0110 Output: 1110
Time: 1360 ns I: 135 DATA: 1000  KEY: 0111 Output: 1111
Time: 1370 ns I: 136 DATA: 1000  KEY: 1000 Output: 0000
Time: 1380 ns I: 137 DATA: 1000  KEY: 1001 Output: 0001
Time: 1390 ns I: 138 DATA: 1000  KEY: 1010 Output: 0010
Time: 1400 ns I: 139 DATA: 1000  KEY: 1011 Output: 0011
Time: 1410 ns I: 140 DATA: 1000  KEY: 1100 Output: 0100
Time: 1420 ns I: 141 DATA: 1000  KEY: 1101 Output: 0101
Time: 1430 ns I: 142 DATA: 1000  KEY: 1110 Output: 0110
Time: 1440 ns I: 143 DATA: 1000  KEY: 1111 Output: 0111
Time: 1450 ns I: 144 DATA: 1001  KEY: 0000 Output: 1001
Time: 1460 ns I: 145 DATA: 1001  KEY: 0001 Output: 1000
Time: 1470 ns I: 146 DATA: 1001  KEY: 0010 Output: 1011
Time: 1480 ns I: 147 DATA: 1001  KEY: 0011 Output: 1010
Time: 1490 ns I: 148 DATA: 1001  KEY: 0100 Output: 1101
Time: 1500 ns I: 149 DATA: 1001  KEY: 0101 Output: 1100
Time: 1510 ns I: 150 DATA: 1001  KEY: 0110 Output: 1111
Time: 1520 ns I: 151 DATA: 1001  KEY: 0111 Output: 1110
Time: 1530 ns I: 152 DATA: 1001  KEY: 1000 Output: 0001
Time: 1540 ns I: 153 DATA: 1001  KEY: 1001 Output: 0000
Time: 1550 ns I: 154 DATA: 1001  KEY: 1010 Output: 0011
Time: 1560 ns I: 155 DATA: 1001  KEY: 1011 Output: 0010
Time: 1570 ns I: 156 DATA: 1001  KEY: 1100 Output: 0101
Time: 1580 ns I: 157 DATA: 1001  KEY: 1101 Output: 0100
Time: 1590 ns I: 158 DATA: 1001  KEY: 1110 Output: 0111
Time: 1600 ns I: 159 DATA: 1001  KEY: 1111 Output: 0110
Time: 1610 ns I: 160 DATA: 1010  KEY: 0000 Output: 1010
Time: 1620 ns I: 161 DATA: 1010  KEY: 0001 Output: 1011
Time: 1630 ns I: 162 DATA: 1010  KEY: 0010 Output: 1000
Time: 1640 ns I: 163 DATA: 1010  KEY: 0011 Output: 1001
Time: 1650 ns I: 164 DATA: 1010  KEY: 0100 Output: 1110
Time: 1660 ns I: 165 DATA: 1010  KEY: 0101 Output: 1111
Time: 1670 ns I: 166 DATA: 1010  KEY: 0110 Output: 1100
Time: 1680 ns I: 167 DATA: 1010  KEY: 0111 Output: 1101
Time: 1690 ns I: 168 DATA: 1010  KEY: 1000 Output: 0010
Time: 1700 ns I: 169 DATA: 1010  KEY: 1001 Output: 0011
Time: 1710 ns I: 170 DATA: 1010  KEY: 1010 Output: 0000
Time: 1720 ns I: 171 DATA: 1010  KEY: 1011 Output: 0001
Time: 1730 ns I: 172 DATA: 1010  KEY: 1100 Output: 0110
Time: 1740 ns I: 173 DATA: 1010  KEY: 1101 Output: 0111
Time: 1750 ns I: 174 DATA: 1010  KEY: 1110 Output: 0100
Time: 1760 ns I: 175 DATA: 1010  KEY: 1111 Output: 0101
Time: 1770 ns I: 176 DATA: 1011  KEY: 0000 Output: 1011
Time: 1780 ns I: 177 DATA: 1011  KEY: 0001 Output: 1010
Time: 1790 ns I: 178 DATA: 1011  KEY: 0010 Output: 1001
Time: 1800 ns I: 179 DATA: 1011  KEY: 0011 Output: 1000
Time: 1810 ns I: 180 DATA: 1011  KEY: 0100 Output: 1111
Time: 1820 ns I: 181 DATA: 1011  KEY: 0101 Output: 1110
Time: 1830 ns I: 182 DATA: 1011  KEY: 0110 Output: 1101
Time: 1840 ns I: 183 DATA: 1011  KEY: 0111 Output: 1100
Time: 1850 ns I: 184 DATA: 1011  KEY: 1000 Output: 0011
Time: 1860 ns I: 185 DATA: 1011  KEY: 1001 Output: 0010
Time: 1870 ns I: 186 DATA: 1011  KEY: 1010 Output: 0001
Time: 1880 ns I: 187 DATA: 1011  KEY: 1011 Output: 0000
Time: 1890 ns I: 188 DATA: 1011  KEY: 1100 Output: 0111
Time: 1900 ns I: 189 DATA: 1011  KEY: 1101 Output: 0110
Time: 1910 ns I: 190 DATA: 1011  KEY: 1110 Output: 0101
Time: 1920 ns I: 191 DATA: 1011  KEY: 1111 Output: 0100
Time: 1930 ns I: 192 DATA: 1100  KEY: 0000 Output: 1100
Time: 1940 ns I: 193 DATA: 1100  KEY: 0001 Output: 1101
Time: 1950 ns I: 194 DATA: 1100  KEY: 0010 Output: 1110
Time: 1960 ns I: 195 DATA: 1100  KEY: 0011 Output: 1111
Time: 1970 ns I: 196 DATA: 1100  KEY: 0100 Output: 1000
Time: 1980 ns I: 197 DATA: 1100  KEY: 0101 Output: 1001
Time: 1990 ns I: 198 DATA: 1100  KEY: 0110 Output: 1010
Time: 2000 ns I: 199 DATA: 1100  KEY: 0111 Output: 1011
Time: 2010 ns I: 200 DATA: 1100  KEY: 1000 Output: 0100
Time: 2020 ns I: 201 DATA: 1100  KEY: 1001 Output: 0101
Time: 2030 ns I: 202 DATA: 1100  KEY: 1010 Output: 0110
Time: 2040 ns I: 203 DATA: 1100  KEY: 1011 Output: 0111
Time: 2050 ns I: 204 DATA: 1100  KEY: 1100 Output: 0000
Time: 2060 ns I: 205 DATA: 1100  KEY: 1101 Output: 0001
Time: 2070 ns I: 206 DATA: 1100  KEY: 1110 Output: 0010
Time: 2080 ns I: 207 DATA: 1100  KEY: 1111 Output: 0011
Time: 2090 ns I: 208 DATA: 1101  KEY: 0000 Output: 1101
Time: 2100 ns I: 209 DATA: 1101  KEY: 0001 Output: 1100
Time: 2110 ns I: 210 DATA: 1101  KEY: 0010 Output: 1111
Time: 2120 ns I: 211 DATA: 1101  KEY: 0011 Output: 1110
Time: 2130 ns I: 212 DATA: 1101  KEY: 0100 Output: 1001
Time: 2140 ns I: 213 DATA: 1101  KEY: 0101 Output: 1000
Time: 2150 ns I: 214 DATA: 1101  KEY: 0110 Output: 1011
Time: 2160 ns I: 215 DATA: 1101  KEY: 0111 Output: 1010
Time: 2170 ns I: 216 DATA: 1101  KEY: 1000 Output: 0101
Time: 2180 ns I: 217 DATA: 1101  KEY: 1001 Output: 0100
Time: 2190 ns I: 218 DATA: 1101  KEY: 1010 Output: 0111
Time: 2200 ns I: 219 DATA: 1101  KEY: 1011 Output: 0110
Time: 2210 ns I: 220 DATA: 1101  KEY: 1100 Output: 0001
Time: 2220 ns I: 221 DATA: 1101  KEY: 1101 Output: 0000
Time: 2230 ns I: 222 DATA: 1101  KEY: 1110 Output: 0011
Time: 2240 ns I: 223 DATA: 1101  KEY: 1111 Output: 0010
Time: 2250 ns I: 224 DATA: 1110  KEY: 0000 Output: 1110
Time: 2260 ns I: 225 DATA: 1110  KEY: 0001 Output: 1111
Time: 2270 ns I: 226 DATA: 1110  KEY: 0010 Output: 1100
Time: 2280 ns I: 227 DATA: 1110  KEY: 0011 Output: 1101
Time: 2290 ns I: 228 DATA: 1110  KEY: 0100 Output: 1010
Time: 2300 ns I: 229 DATA: 1110  KEY: 0101 Output: 1011
Time: 2310 ns I: 230 DATA: 1110  KEY: 0110 Output: 1000
Time: 2320 ns I: 231 DATA: 1110  KEY: 0111 Output: 1001
Time: 2330 ns I: 232 DATA: 1110  KEY: 1000 Output: 0110
Time: 2340 ns I: 233 DATA: 1110  KEY: 1001 Output: 0111
Time: 2350 ns I: 234 DATA: 1110  KEY: 1010 Output: 0100
Time: 2360 ns I: 235 DATA: 1110  KEY: 1011 Output: 0101
Time: 2370 ns I: 236 DATA: 1110  KEY: 1100 Output: 0010
Time: 2380 ns I: 237 DATA: 1110  KEY: 1101 Output: 0011
Time: 2390 ns I: 238 DATA: 1110  KEY: 1110 Output: 0000
Time: 2400 ns I: 239 DATA: 1110  KEY: 1111 Output: 0001
Time: 2410 ns I: 240 DATA: 1111  KEY: 0000 Output: 1111
Time: 2420 ns I: 241 DATA: 1111  KEY: 0001 Output: 1110
Time: 2430 ns I: 242 DATA: 1111  KEY: 0010 Output: 1101
Time: 2440 ns I: 243 DATA: 1111  KEY: 0011 Output: 1100
Time: 2450 ns I: 244 DATA: 1111  KEY: 0100 Output: 1011
Time: 2460 ns I: 245 DATA: 1111  KEY: 0101 Output: 1010
Time: 2470 ns I: 246 DATA: 1111  KEY: 0110 Output: 1001
Time: 2480 ns I: 247 DATA: 1111  KEY: 0111 Output: 1000
Time: 2490 ns I: 248 DATA: 1111  KEY: 1000 Output: 0111
Time: 2500 ns I: 249 DATA: 1111  KEY: 1001 Output: 0110
Time: 2510 ns I: 250 DATA: 1111  KEY: 1010 Output: 0101
Time: 2520 ns I: 251 DATA: 1111  KEY: 1011 Output: 0100
Time: 2530 ns I: 252 DATA: 1111  KEY: 1100 Output: 0011
Time: 2540 ns I: 253 DATA: 1111  KEY: 1101 Output: 0010
Time: 2550 ns I: 254 DATA: 1111  KEY: 1110 Output: 0001
Time: 2560 ns I: 255 DATA: 1111  KEY: 1111 Output: 0000
